{
  "warnings": [
    {
      "file": "/Users/cavellebenjamin/Development/toolbox/AppStoreConnect/Sources/AppStoreConnectKit/AppMetaData/Achievement.swift",
      "line": 37,
      "symbol": "Achievements.achievements",
      "symbol_kind": "source.lang.swift.decl.var.instance",
      "warning": "undocumented"
    },
    {
      "file": "/Users/cavellebenjamin/Development/toolbox/AppStoreConnect/Sources/AppStoreConnectKit/AppMetaData/Achievement.swift",
      "line": 56,
      "symbol": "Achievement.remove",
      "symbol_kind": "source.lang.swift.decl.var.instance",
      "warning": "undocumented"
    },
    {
      "file": "/Users/cavellebenjamin/Development/toolbox/AppStoreConnect/Sources/AppStoreConnectKit/AppMetaData/Achievement.swift",
      "line": 57,
      "symbol": "Achievement.position",
      "symbol_kind": "source.lang.swift.decl.var.instance",
      "warning": "undocumented"
    },
    {
      "file": "/Users/cavellebenjamin/Development/toolbox/AppStoreConnect/Sources/AppStoreConnectKit/AppMetaData/Achievement.swift",
      "line": 58,
      "symbol": "Achievement.achievementID",
      "symbol_kind": "source.lang.swift.decl.var.instance",
      "warning": "undocumented"
    },
    {
      "file": "/Users/cavellebenjamin/Development/toolbox/AppStoreConnect/Sources/AppStoreConnectKit/AppMetaData/Achievement.swift",
      "line": 59,
      "symbol": "Achievement.referenceName",
      "symbol_kind": "source.lang.swift.decl.var.instance",
      "warning": "undocumented"
    },
    {
      "file": "/Users/cavellebenjamin/Development/toolbox/AppStoreConnect/Sources/AppStoreConnectKit/AppMetaData/Achievement.swift",
      "line": 60,
      "symbol": "Achievement.points",
      "symbol_kind": "source.lang.swift.decl.var.instance",
      "warning": "undocumented"
    },
    {
      "file": "/Users/cavellebenjamin/Development/toolbox/AppStoreConnect/Sources/AppStoreConnectKit/AppMetaData/Achievement.swift",
      "line": 61,
      "symbol": "Achievement.isHidden",
      "symbol_kind": "source.lang.swift.decl.var.instance",
      "warning": "undocumented"
    },
    {
      "file": "/Users/cavellebenjamin/Development/toolbox/AppStoreConnect/Sources/AppStoreConnectKit/AppMetaData/Achievement.swift",
      "line": 62,
      "symbol": "Achievement.isReusable",
      "symbol_kind": "source.lang.swift.decl.var.instance",
      "warning": "undocumented"
    },
    {
      "file": "/Users/cavellebenjamin/Development/toolbox/AppStoreConnect/Sources/AppStoreConnectKit/AppMetaData/Achievement.swift",
      "line": 63,
      "symbol": "Achievement.locales",
      "symbol_kind": "source.lang.swift.decl.var.instance",
      "warning": "undocumented"
    },
    {
      "file": "/Users/cavellebenjamin/Development/toolbox/AppStoreConnect/Sources/AppStoreConnectKit/AppMetaData/AppPreview.swift",
      "line": 35,
      "symbol": "AppPreviews.appPreviews",
      "symbol_kind": "source.lang.swift.decl.var.instance",
      "warning": "undocumented"
    },
    {
      "file": "/Users/cavellebenjamin/Development/toolbox/AppStoreConnect/Sources/AppStoreConnectKit/AppMetaData/AppPreview.swift",
      "line": 55,
      "symbol": "AppPreview.displayTarget",
      "symbol_kind": "source.lang.swift.decl.var.instance",
      "warning": "undocumented"
    },
    {
      "file": "/Users/cavellebenjamin/Development/toolbox/AppStoreConnect/Sources/AppStoreConnectKit/AppMetaData/AppPreview.swift",
      "line": 56,
      "symbol": "AppPreview.position",
      "symbol_kind": "source.lang.swift.decl.var.instance",
      "warning": "undocumented"
    },
    {
      "file": "/Users/cavellebenjamin/Development/toolbox/AppStoreConnect/Sources/AppStoreConnectKit/AppMetaData/AppPreview.swift",
      "line": 57,
      "symbol": "AppPreview.previewImageTime",
      "symbol_kind": "source.lang.swift.decl.var.instance",
      "warning": "undocumented"
    },
    {
      "file": "/Users/cavellebenjamin/Development/toolbox/AppStoreConnect/Sources/AppStoreConnectKit/AppMetaData/AppPreview.swift",
      "line": 58,
      "symbol": "AppPreview.dataFile",
      "symbol_kind": "source.lang.swift.decl.var.instance",
      "warning": "undocumented"
    },
    {
      "file": "/Users/cavellebenjamin/Development/toolbox/AppStoreConnect/Sources/AppStoreConnectKit/AppMetaData/CheckSum.swift",
      "line": 43,
      "symbol": "CheckSum.type",
      "symbol_kind": "source.lang.swift.decl.var.instance",
      "warning": "undocumented"
    },
    {
      "file": "/Users/cavellebenjamin/Development/toolbox/AppStoreConnect/Sources/AppStoreConnectKit/AppMetaData/CheckSum.swift",
      "line": 44,
      "symbol": "CheckSum.value",
      "symbol_kind": "source.lang.swift.decl.var.instance",
      "warning": "undocumented"
    },
    {
      "file": "/Users/cavellebenjamin/Development/toolbox/AppStoreConnect/Sources/AppStoreConnectKit/AppMetaData/CheckSum.swift",
      "line": 51,
      "symbol": "CheckSum.nodeEncoding(forKey:)",
      "symbol_kind": "source.lang.swift.decl.function.method.static",
      "warning": "undocumented"
    },
    {
      "file": "/Users/cavellebenjamin/Development/toolbox/AppStoreConnect/Sources/AppStoreConnectKit/AppMetaData/DataFile.swift",
      "line": 31,
      "symbol": "DataFile",
      "symbol_kind": "source.lang.swift.decl.struct",
      "warning": "undocumented"
    },
    {
      "file": "/Users/cavellebenjamin/Development/toolbox/AppStoreConnect/Sources/AppStoreConnectKit/AppMetaData/DataFile.swift",
      "line": 32,
      "symbol": "DataFile.role",
      "symbol_kind": "source.lang.swift.decl.var.instance",
      "warning": "undocumented"
    },
    {
      "file": "/Users/cavellebenjamin/Development/toolbox/AppStoreConnect/Sources/AppStoreConnectKit/AppMetaData/DataFile.swift",
      "line": 33,
      "symbol": "DataFile.fileName",
      "symbol_kind": "source.lang.swift.decl.var.instance",
      "warning": "undocumented"
    },
    {
      "file": "/Users/cavellebenjamin/Development/toolbox/AppStoreConnect/Sources/AppStoreConnectKit/AppMetaData/DataFile.swift",
      "line": 34,
      "symbol": "DataFile.size",
      "symbol_kind": "source.lang.swift.decl.var.instance",
      "warning": "undocumented"
    },
    {
      "file": "/Users/cavellebenjamin/Development/toolbox/AppStoreConnect/Sources/AppStoreConnectKit/AppMetaData/DataFile.swift",
      "line": 35,
      "symbol": "DataFile.checksum",
      "symbol_kind": "source.lang.swift.decl.var.instance",
      "warning": "undocumented"
    },
    {
      "file": "/Users/cavellebenjamin/Development/toolbox/AppStoreConnect/Sources/AppStoreConnectKit/AppMetaData/GameCenter.swift",
      "line": 55,
      "symbol": "GameCenter.achievements",
      "symbol_kind": "source.lang.swift.decl.var.instance",
      "warning": "undocumented"
    },
    {
      "file": "/Users/cavellebenjamin/Development/toolbox/AppStoreConnect/Sources/AppStoreConnectKit/AppMetaData/GameCenter.swift",
      "line": 56,
      "symbol": "GameCenter.leaderboards",
      "symbol_kind": "source.lang.swift.decl.var.instance",
      "warning": "undocumented"
    },
    {
      "file": "/Users/cavellebenjamin/Development/toolbox/AppStoreConnect/Sources/AppStoreConnectKit/AppMetaData/InAppPurchase.swift",
      "line": 36,
      "symbol": "InAppPurchases.inAppPurchases",
      "symbol_kind": "source.lang.swift.decl.var.instance",
      "warning": "undocumented"
    },
    {
      "file": "/Users/cavellebenjamin/Development/toolbox/AppStoreConnect/Sources/AppStoreConnectKit/AppMetaData/InAppPurchase.swift",
      "line": 57,
      "symbol": "InAppPurchase.productID",
      "symbol_kind": "source.lang.swift.decl.var.instance",
      "warning": "undocumented"
    },
    {
      "file": "/Users/cavellebenjamin/Development/toolbox/AppStoreConnect/Sources/AppStoreConnectKit/AppMetaData/InAppPurchase.swift",
      "line": 58,
      "symbol": "InAppPurchase.referenceName",
      "symbol_kind": "source.lang.swift.decl.var.instance",
      "warning": "undocumented"
    },
    {
      "file": "/Users/cavellebenjamin/Development/toolbox/AppStoreConnect/Sources/AppStoreConnectKit/AppMetaData/InAppPurchase.swift",
      "line": 59,
      "symbol": "InAppPurchase.type",
      "symbol_kind": "source.lang.swift.decl.var.instance",
      "warning": "undocumented"
    },
    {
      "file": "/Users/cavellebenjamin/Development/toolbox/AppStoreConnect/Sources/AppStoreConnectKit/AppMetaData/InAppPurchase.swift",
      "line": 60,
      "symbol": "InAppPurchase.products",
      "symbol_kind": "source.lang.swift.decl.var.instance",
      "warning": "undocumented"
    },
    {
      "file": "/Users/cavellebenjamin/Development/toolbox/AppStoreConnect/Sources/AppStoreConnectKit/AppMetaData/InAppPurchase.swift",
      "line": 61,
      "symbol": "InAppPurchase.locales",
      "symbol_kind": "source.lang.swift.decl.var.instance",
      "warning": "undocumented"
    },
    {
      "file": "/Users/cavellebenjamin/Development/toolbox/AppStoreConnect/Sources/AppStoreConnectKit/AppMetaData/KeyWords.swift",
      "line": 46,
      "symbol": "KeyWords.keywords",
      "symbol_kind": "source.lang.swift.decl.var.instance",
      "warning": "undocumented"
    },
    {
      "file": "/Users/cavellebenjamin/Development/toolbox/AppStoreConnect/Sources/AppStoreConnectKit/AppMetaData/LeaderBoard.swift",
      "line": 37,
      "symbol": "LeaderBoards.leaderboards",
      "symbol_kind": "source.lang.swift.decl.var.instance",
      "warning": "undocumented"
    },
    {
      "file": "/Users/cavellebenjamin/Development/toolbox/AppStoreConnect/Sources/AppStoreConnectKit/AppMetaData/LeaderBoard.swift",
      "line": 67,
      "symbol": "LeaderBoard.isDefault",
      "symbol_kind": "source.lang.swift.decl.var.instance",
      "warning": "undocumented"
    },
    {
      "file": "/Users/cavellebenjamin/Development/toolbox/AppStoreConnect/Sources/AppStoreConnectKit/AppMetaData/LeaderBoard.swift",
      "line": 68,
      "symbol": "LeaderBoard.position",
      "symbol_kind": "source.lang.swift.decl.var.instance",
      "warning": "undocumented"
    },
    {
      "file": "/Users/cavellebenjamin/Development/toolbox/AppStoreConnect/Sources/AppStoreConnectKit/AppMetaData/LeaderBoard.swift",
      "line": 69,
      "symbol": "LeaderBoard.remove",
      "symbol_kind": "source.lang.swift.decl.var.instance",
      "warning": "undocumented"
    },
    {
      "file": "/Users/cavellebenjamin/Development/toolbox/AppStoreConnect/Sources/AppStoreConnectKit/AppMetaData/LeaderBoard.swift",
      "line": 70,
      "symbol": "LeaderBoard.leaderBoardID",
      "symbol_kind": "source.lang.swift.decl.var.instance",
      "warning": "undocumented"
    },
    {
      "file": "/Users/cavellebenjamin/Development/toolbox/AppStoreConnect/Sources/AppStoreConnectKit/AppMetaData/LeaderBoard.swift",
      "line": 71,
      "symbol": "LeaderBoard.referenceName",
      "symbol_kind": "source.lang.swift.decl.var.instance",
      "warning": "undocumented"
    },
    {
      "file": "/Users/cavellebenjamin/Development/toolbox/AppStoreConnect/Sources/AppStoreConnectKit/AppMetaData/LeaderBoard.swift",
      "line": 72,
      "symbol": "LeaderBoard.aggregateParentLeaderboard",
      "symbol_kind": "source.lang.swift.decl.var.instance",
      "warning": "undocumented"
    },
    {
      "file": "/Users/cavellebenjamin/Development/toolbox/AppStoreConnect/Sources/AppStoreConnectKit/AppMetaData/LeaderBoard.swift",
      "line": 73,
      "symbol": "LeaderBoard.sortAscending",
      "symbol_kind": "source.lang.swift.decl.var.instance",
      "warning": "undocumented"
    },
    {
      "file": "/Users/cavellebenjamin/Development/toolbox/AppStoreConnect/Sources/AppStoreConnectKit/AppMetaData/LeaderBoard.swift",
      "line": 74,
      "symbol": "LeaderBoard.scoreRangeMin",
      "symbol_kind": "source.lang.swift.decl.var.instance",
      "warning": "undocumented"
    },
    {
      "file": "/Users/cavellebenjamin/Development/toolbox/AppStoreConnect/Sources/AppStoreConnectKit/AppMetaData/LeaderBoard.swift",
      "line": 75,
      "symbol": "LeaderBoard.scoreRangeMax",
      "symbol_kind": "source.lang.swift.decl.var.instance",
      "warning": "undocumented"
    },
    {
      "file": "/Users/cavellebenjamin/Development/toolbox/AppStoreConnect/Sources/AppStoreConnectKit/AppMetaData/LeaderBoard.swift",
      "line": 76,
      "symbol": "LeaderBoard.locales",
      "symbol_kind": "source.lang.swift.decl.var.instance",
      "warning": "undocumented"
    },
    {
      "file": "/Users/cavellebenjamin/Development/toolbox/AppStoreConnect/Sources/AppStoreConnectKit/AppMetaData/Locale.swift",
      "line": null,
      "symbol": "Locales",
      "symbol_kind": "source.lang.swift.decl.extension",
      "warning": "undocumented"
    },
    {
      "file": "/Users/cavellebenjamin/Development/toolbox/AppStoreConnect/Sources/AppStoreConnectKit/AppMetaData/Locale.swift",
      "line": 31,
      "symbol": "Locales",
      "symbol_kind": "source.lang.swift.decl.struct",
      "warning": "undocumented"
    },
    {
      "file": "/Users/cavellebenjamin/Development/toolbox/AppStoreConnect/Sources/AppStoreConnectKit/AppMetaData/Locale.swift",
      "line": 32,
      "symbol": "Locales.locales",
      "symbol_kind": "source.lang.swift.decl.var.instance",
      "warning": "undocumented"
    },
    {
      "file": "/Users/cavellebenjamin/Development/toolbox/AppStoreConnect/Sources/AppStoreConnectKit/AppMetaData/Locale.swift",
      "line": 41,
      "symbol": "Locales.subscript(_:)",
      "symbol_kind": "source.lang.swift.decl.function.subscript",
      "warning": "undocumented"
    },
    {
      "file": "/Users/cavellebenjamin/Development/toolbox/AppStoreConnect/Sources/AppStoreConnectKit/AppMetaData/Locale.swift",
      "line": 59,
      "symbol": "Locale",
      "symbol_kind": "source.lang.swift.decl.struct",
      "warning": "undocumented"
    },
    {
      "file": "/Users/cavellebenjamin/Development/toolbox/AppStoreConnect/Sources/AppStoreConnectKit/AppMetaData/Locale.swift",
      "line": 60,
      "symbol": "Locale.name",
      "symbol_kind": "source.lang.swift.decl.var.instance",
      "warning": "undocumented"
    },
    {
      "file": "/Users/cavellebenjamin/Development/toolbox/AppStoreConnect/Sources/AppStoreConnectKit/AppMetaData/Locale.swift",
      "line": 61,
      "symbol": "Locale.remove",
      "symbol_kind": "source.lang.swift.decl.var.instance",
      "warning": "undocumented"
    },
    {
      "file": "/Users/cavellebenjamin/Development/toolbox/AppStoreConnect/Sources/AppStoreConnectKit/AppMetaData/Locale.swift",
      "line": 62,
      "symbol": "Locale.title",
      "symbol_kind": "source.lang.swift.decl.var.instance",
      "warning": "undocumented"
    },
    {
      "file": "/Users/cavellebenjamin/Development/toolbox/AppStoreConnect/Sources/AppStoreConnectKit/AppMetaData/Locale.swift",
      "line": 63,
      "symbol": "Locale.subtitle",
      "symbol_kind": "source.lang.swift.decl.var.instance",
      "warning": "undocumented"
    },
    {
      "file": "/Users/cavellebenjamin/Development/toolbox/AppStoreConnect/Sources/AppStoreConnectKit/AppMetaData/Locale.swift",
      "line": 64,
      "symbol": "Locale.description",
      "symbol_kind": "source.lang.swift.decl.var.instance",
      "warning": "undocumented"
    },
    {
      "file": "/Users/cavellebenjamin/Development/toolbox/AppStoreConnect/Sources/AppStoreConnectKit/AppMetaData/Locale.swift",
      "line": 65,
      "symbol": "Locale.promotionalText",
      "symbol_kind": "source.lang.swift.decl.var.instance",
      "warning": "undocumented"
    },
    {
      "file": "/Users/cavellebenjamin/Development/toolbox/AppStoreConnect/Sources/AppStoreConnectKit/AppMetaData/Locale.swift",
      "line": 66,
      "symbol": "Locale.keywords",
      "symbol_kind": "source.lang.swift.decl.var.instance",
      "warning": "undocumented"
    },
    {
      "file": "/Users/cavellebenjamin/Development/toolbox/AppStoreConnect/Sources/AppStoreConnectKit/AppMetaData/Locale.swift",
      "line": 67,
      "symbol": "Locale.whatsNew",
      "symbol_kind": "source.lang.swift.decl.var.instance",
      "warning": "undocumented"
    },
    {
      "file": "/Users/cavellebenjamin/Development/toolbox/AppStoreConnect/Sources/AppStoreConnectKit/AppMetaData/Locale.swift",
      "line": 68,
      "symbol": "Locale.softwareURL",
      "symbol_kind": "source.lang.swift.decl.var.instance",
      "warning": "undocumented"
    },
    {
      "file": "/Users/cavellebenjamin/Development/toolbox/AppStoreConnect/Sources/AppStoreConnectKit/AppMetaData/Locale.swift",
      "line": 69,
      "symbol": "Locale.privacyURL",
      "symbol_kind": "source.lang.swift.decl.var.instance",
      "warning": "undocumented"
    },
    {
      "file": "/Users/cavellebenjamin/Development/toolbox/AppStoreConnect/Sources/AppStoreConnectKit/AppMetaData/Locale.swift",
      "line": 70,
      "symbol": "Locale.supportURL",
      "symbol_kind": "source.lang.swift.decl.var.instance",
      "warning": "undocumented"
    },
    {
      "file": "/Users/cavellebenjamin/Development/toolbox/AppStoreConnect/Sources/AppStoreConnectKit/AppMetaData/Locale.swift",
      "line": 71,
      "symbol": "Locale.appPreviews",
      "symbol_kind": "source.lang.swift.decl.var.instance",
      "warning": "undocumented"
    },
    {
      "file": "/Users/cavellebenjamin/Development/toolbox/AppStoreConnect/Sources/AppStoreConnectKit/AppMetaData/Locale.swift",
      "line": 72,
      "symbol": "Locale.screenShots",
      "symbol_kind": "source.lang.swift.decl.var.instance",
      "warning": "undocumented"
    },
    {
      "file": "/Users/cavellebenjamin/Development/toolbox/AppStoreConnect/Sources/AppStoreConnectKit/AppMetaData/MetaData.swift",
      "line": 31,
      "symbol": "MetaData",
      "symbol_kind": "source.lang.swift.decl.struct",
      "warning": "undocumented"
    },
    {
      "file": "/Users/cavellebenjamin/Development/toolbox/AppStoreConnect/Sources/AppStoreConnectKit/AppMetaData/MetaData.swift",
      "line": 32,
      "symbol": "MetaData.versions",
      "symbol_kind": "source.lang.swift.decl.var.instance",
      "warning": "undocumented"
    },
    {
      "file": "/Users/cavellebenjamin/Development/toolbox/AppStoreConnect/Sources/AppStoreConnectKit/AppMetaData/MetaData.swift",
      "line": 33,
      "symbol": "MetaData.products",
      "symbol_kind": "source.lang.swift.decl.var.instance",
      "warning": "undocumented"
    },
    {
      "file": "/Users/cavellebenjamin/Development/toolbox/AppStoreConnect/Sources/AppStoreConnectKit/AppMetaData/MetaData.swift",
      "line": 34,
      "symbol": "MetaData.inAppPurchases",
      "symbol_kind": "source.lang.swift.decl.var.instance",
      "warning": "undocumented"
    },
    {
      "file": "/Users/cavellebenjamin/Development/toolbox/AppStoreConnect/Sources/AppStoreConnectKit/AppMetaData/MetaData.swift",
      "line": 35,
      "symbol": "MetaData.gameCenter",
      "symbol_kind": "source.lang.swift.decl.var.instance",
      "warning": "undocumented"
    },
    {
      "file": "/Users/cavellebenjamin/Development/toolbox/AppStoreConnect/Sources/AppStoreConnectKit/AppMetaData/PreviewImageTime.swift",
      "line": 32,
      "symbol": "PreviewImageTime",
      "symbol_kind": "source.lang.swift.decl.struct",
      "warning": "undocumented"
    },
    {
      "file": "/Users/cavellebenjamin/Development/toolbox/AppStoreConnect/Sources/AppStoreConnectKit/AppMetaData/PreviewImageTime.swift",
      "line": 33,
      "symbol": "PreviewImageTime.format",
      "symbol_kind": "source.lang.swift.decl.var.instance",
      "warning": "undocumented"
    },
    {
      "file": "/Users/cavellebenjamin/Development/toolbox/AppStoreConnect/Sources/AppStoreConnectKit/AppMetaData/PreviewImageTime.swift",
      "line": 34,
      "symbol": "PreviewImageTime.value",
      "symbol_kind": "source.lang.swift.decl.var.instance",
      "warning": "undocumented"
    },
    {
      "file": "/Users/cavellebenjamin/Development/toolbox/AppStoreConnect/Sources/AppStoreConnectKit/AppMetaData/PreviewImageTime.swift",
      "line": 41,
      "symbol": "PreviewImageTime.nodeEncoding(forKey:)",
      "symbol_kind": "source.lang.swift.decl.function.method.static",
      "warning": "undocumented"
    },
    {
      "file": "/Users/cavellebenjamin/Development/toolbox/AppStoreConnect/Sources/AppStoreConnectKit/AppMetaData/Product.swift",
      "line": 31,
      "symbol": "Products",
      "symbol_kind": "source.lang.swift.decl.struct",
      "warning": "undocumented"
    },
    {
      "file": "/Users/cavellebenjamin/Development/toolbox/AppStoreConnect/Sources/AppStoreConnectKit/AppMetaData/Product.swift",
      "line": 33,
      "symbol": "Products.products",
      "symbol_kind": "source.lang.swift.decl.var.instance",
      "warning": "undocumented"
    },
    {
      "file": "/Users/cavellebenjamin/Development/toolbox/AppStoreConnect/Sources/AppStoreConnectKit/AppMetaData/Product.swift",
      "line": 40,
      "symbol": "Product",
      "symbol_kind": "source.lang.swift.decl.struct",
      "warning": "undocumented"
    },
    {
      "file": "/Users/cavellebenjamin/Development/toolbox/AppStoreConnect/Sources/AppStoreConnectKit/AppMetaData/Product.swift",
      "line": 41,
      "symbol": "Product.territory",
      "symbol_kind": "source.lang.swift.decl.var.instance",
      "warning": "undocumented"
    },
    {
      "file": "/Users/cavellebenjamin/Development/toolbox/AppStoreConnect/Sources/AppStoreConnectKit/AppMetaData/Product.swift",
      "line": 42,
      "symbol": "Product.salesStartDate",
      "symbol_kind": "source.lang.swift.decl.var.instance",
      "warning": "undocumented"
    },
    {
      "file": "/Users/cavellebenjamin/Development/toolbox/AppStoreConnect/Sources/AppStoreConnectKit/AppMetaData/Product.swift",
      "line": 43,
      "symbol": "Product.clearedForSale",
      "symbol_kind": "source.lang.swift.decl.var.instance",
      "warning": "undocumented"
    },
    {
      "file": "/Users/cavellebenjamin/Development/toolbox/AppStoreConnect/Sources/AppStoreConnectKit/AppMetaData/Product.swift",
      "line": 44,
      "symbol": "Product.priceTier",
      "symbol_kind": "source.lang.swift.decl.var.instance",
      "warning": "undocumented"
    },
    {
      "file": "/Users/cavellebenjamin/Development/toolbox/AppStoreConnect/Sources/AppStoreConnectKit/AppMetaData/Product.swift",
      "line": 45,
      "symbol": "Product.volumeDiscount",
      "symbol_kind": "source.lang.swift.decl.var.instance",
      "warning": "undocumented"
    },
    {
      "file": "/Users/cavellebenjamin/Development/toolbox/AppStoreConnect/Sources/AppStoreConnectKit/AppMetaData/ScreenShot.swift",
      "line": 30,
      "symbol": "ScreenShots",
      "symbol_kind": "source.lang.swift.decl.struct",
      "warning": "undocumented"
    },
    {
      "file": "/Users/cavellebenjamin/Development/toolbox/AppStoreConnect/Sources/AppStoreConnectKit/AppMetaData/ScreenShot.swift",
      "line": 31,
      "symbol": "ScreenShots.screenshots",
      "symbol_kind": "source.lang.swift.decl.var.instance",
      "warning": "undocumented"
    },
    {
      "file": "/Users/cavellebenjamin/Development/toolbox/AppStoreConnect/Sources/AppStoreConnectKit/AppMetaData/ScreenShot.swift",
      "line": 37,
      "symbol": "ScreenShot",
      "symbol_kind": "source.lang.swift.decl.struct",
      "warning": "undocumented"
    },
    {
      "file": "/Users/cavellebenjamin/Development/toolbox/AppStoreConnect/Sources/AppStoreConnectKit/AppMetaData/ScreenShot.swift",
      "line": 38,
      "symbol": "ScreenShot.displayTarget",
      "symbol_kind": "source.lang.swift.decl.var.instance",
      "warning": "undocumented"
    },
    {
      "file": "/Users/cavellebenjamin/Development/toolbox/AppStoreConnect/Sources/AppStoreConnectKit/AppMetaData/ScreenShot.swift",
      "line": 39,
      "symbol": "ScreenShot.position",
      "symbol_kind": "source.lang.swift.decl.var.instance",
      "warning": "undocumented"
    },
    {
      "file": "/Users/cavellebenjamin/Development/toolbox/AppStoreConnect/Sources/AppStoreConnectKit/AppMetaData/ScreenShot.swift",
      "line": 40,
      "symbol": "ScreenShot.fileName",
      "symbol_kind": "source.lang.swift.decl.var.instance",
      "warning": "undocumented"
    },
    {
      "file": "/Users/cavellebenjamin/Development/toolbox/AppStoreConnect/Sources/AppStoreConnectKit/AppMetaData/ScreenShot.swift",
      "line": 41,
      "symbol": "ScreenShot.size",
      "symbol_kind": "source.lang.swift.decl.var.instance",
      "warning": "undocumented"
    },
    {
      "file": "/Users/cavellebenjamin/Development/toolbox/AppStoreConnect/Sources/AppStoreConnectKit/AppMetaData/Version.swift",
      "line": null,
      "symbol": "Versions",
      "symbol_kind": "source.lang.swift.decl.extension",
      "warning": "undocumented"
    },
    {
      "file": "/Users/cavellebenjamin/Development/toolbox/AppStoreConnect/Sources/AppStoreConnectKit/AppMetaData/Version.swift",
      "line": 32,
      "symbol": "Versions",
      "symbol_kind": "source.lang.swift.decl.struct",
      "warning": "undocumented"
    },
    {
      "file": "/Users/cavellebenjamin/Development/toolbox/AppStoreConnect/Sources/AppStoreConnectKit/AppMetaData/Version.swift",
      "line": 34,
      "symbol": "Versions.versions",
      "symbol_kind": "source.lang.swift.decl.var.instance",
      "warning": "undocumented"
    },
    {
      "file": "/Users/cavellebenjamin/Development/toolbox/AppStoreConnect/Sources/AppStoreConnectKit/AppMetaData/Version.swift",
      "line": 42,
      "symbol": "Versions.subscript(_:)",
      "symbol_kind": "source.lang.swift.decl.function.subscript",
      "warning": "undocumented"
    },
    {
      "file": "/Users/cavellebenjamin/Development/toolbox/AppStoreConnect/Sources/AppStoreConnectKit/AppMetaData/Version.swift",
      "line": 60,
      "symbol": "Version",
      "symbol_kind": "source.lang.swift.decl.struct",
      "warning": "undocumented"
    },
    {
      "file": "/Users/cavellebenjamin/Development/toolbox/AppStoreConnect/Sources/AppStoreConnectKit/AppMetaData/Version.swift",
      "line": 61,
      "symbol": "Version.string",
      "symbol_kind": "source.lang.swift.decl.var.instance",
      "warning": "undocumented"
    },
    {
      "file": "/Users/cavellebenjamin/Development/toolbox/AppStoreConnect/Sources/AppStoreConnectKit/AppMetaData/Version.swift",
      "line": 62,
      "symbol": "Version.locales",
      "symbol_kind": "source.lang.swift.decl.var.instance",
      "warning": "undocumented"
    }
  ],
  "source_directory": "/Users/cavellebenjamin/Development/toolbox/AppStoreConnect"
}